…
The data frame that we are going to use is *german.csv* dataframe and in this section I will cover the
case of transformation for *GroupedDataFrame*. 

```jldoctest dataframe
julia> using DataFrames

julia> using CSV

julia> german_ref = CSV.read(joinpath(dirname(pathof(DataFrames)),
                                      "..", "docs", "src", "assets", "german.csv"),
                              DataFrame)
1000×10 DataFrame
  Row │ id     Age    Sex     Job    Housing  Saving accounts  Checking accoun ⋯
      │ Int64  Int64  String  Int64  String   String           String          ⋯
──────┼─────────────────────────────────────────────────────────────────────────
    1 │     0     67  male        2  own      NA               little          ⋯
    2 │     1     22  female      2  own      little           moderate
    3 │     2     49  male        1  own      little           NA
    4 │     3     45  male        2  free     little           little
    5 │     4     53  male        2  free     little           little          ⋯
    6 │     5     35  male        1  free     NA               NA
    7 │     6     53  male        2  own      quite rich       NA
    8 │     7     35  male        3  rent     little           moderate
  ⋮   │   ⋮      ⋮      ⋮       ⋮       ⋮            ⋮                ⋮        ⋱
  994 │   993     30  male        3  own      little           little          ⋯
  995 │   994     50  male        2  own      NA               NA
  996 │   995     31  female      1  own      little           NA
  997 │   996     40  male        3  own      little           little
  998 │   997     38  male        2  own      little           NA              ⋯
  999 │   998     23  male        2  free     little           little
 1000 │   999     27  male        2  own      moderate         moderate
                                                  4 columns and 985 rows omitted
```
…
We may have a doubt that in the above output what's the column `:x1`. So, here we can pass almost any
function to `combine` and then we can actually create a new data frame with new column name `:Age_avg`. 
Lets see an example:

```jldoctest dataframe
julia> combine(
         groupby(german_ref, [:Sex]),
           df -> DataFrame(Age_avg = mean(df.Age))
           )
2×2 DataFrame
 Row │ Sex     Age_avg
     │ String  Float64
─────┼─────────────────
   1 │ male    36.7783
   2 │ female  32.8032
```

As we know, `groupby()` is used to group values. In the following example the output with the values
are grouped:

```jldoctest dataframe
julia> gd = groupby(german_ref, :Age)
GroupedDataFrame with 53 groups based on key: Age
First Group (2 rows): Age = 19
 Row │ id     Age    Sex     Job    Housing  Saving accounts  Checking account ⋯
     │ Int64  Int64  String  Int64  String   String           String           ⋯
─────┼──────────────────────────────────────────────────────────────────────────
   1 │   391     19  female      1  rent     rich             moderate         ⋯
   2 │   633     19  female      2  rent     little           NA
                                                               3 columns omitted
⋮
Last Group (2 rows): Age = 75
 Row │ id     Age    Sex     Job    Housing  Saving accounts  Checking account ⋯
     │ Int64  Int64  String  Int64  String   String           String           ⋯
─────┼──────────────────────────────────────────────────────────────────────────
   1 │   330     75  male        3  free     little           little           ⋯
   2 │   536     75  female      3  own      NA               little
                                                               3 columns omitted

julia> groupby(german_ref, [])
GroupedDataFrame with 1 group based on key:
First Group (1000 rows):
  Row │ id     Age    Sex     Job    Housing  Saving accounts  Checking accoun ⋯
      │ Int64  Int64  String  Int64  String   String           String          ⋯
──────┼─────────────────────────────────────────────────────────────────────────
    1 │     0     67  male        2  own      NA               little          ⋯
    2 │     1     22  female      2  own      little           moderate
    3 │     2     49  male        1  own      little           NA
    4 │     3     45  male        2  free     little           little
    5 │     4     53  male        2  free     little           little          ⋯
    6 │     5     35  male        1  free     NA               NA
    7 │     6     53  male        2  own      quite rich       NA
    8 │     7     35  male        3  rent     little           moderate
  ⋮   │   ⋮      ⋮      ⋮       ⋮       ⋮            ⋮                ⋮        ⋱
  993 │   992     23  male        1  rent     NA               little          ⋯
  994 │   993     30  male        3  own      little           little
  995 │   994     50  male        2  own      NA               NA
  996 │   995     31  female      1  own      little           NA
  997 │   996     40  male        3  own      little           little          ⋯
  998 │   997     38  male        2  own      little           NA
  999 │   998     23  male        2  free     little           little
 1000 │   999     27  male        2  own      moderate         moderate
                                                  4 columns and 984 rows omitted
…
julia> gd[(Age=19,)]
2×10 SubDataFrame
 Row │ id     Age    Sex     Job    Housing  Saving accounts  Checking account ⋯
     │ Int64  Int64  String  Int64  String   String           String           ⋯
─────┼──────────────────────────────────────────────────────────────────────────
   1 │   391     19  female      1  rent     rich             moderate         ⋯
   2 │   633     19  female      2  rent     little           NA
                                                               3 columns omitted

julia> parent(gd) # get the parent DataFrame
1000×10 DataFrame
  Row │ id     Age    Sex     Job    Housing  Saving accounts  Checking accoun ⋯
      │ Int64  Int64  String  Int64  String   String           String          ⋯
──────┼─────────────────────────────────────────────────────────────────────────
    1 │     0     67  male        2  own      NA               little          ⋯
    2 │     1     22  female      2  own      little           moderate
    3 │     2     49  male        1  own      little           NA
    4 │     3     45  male        2  free     little           little
    5 │     4     53  male        2  free     little           little          ⋯
    6 │     5     35  male        1  free     NA               NA
    7 │     6     53  male        2  own      quite rich       NA
    8 │     7     35  male        3  rent     little           moderate
  ⋮   │   ⋮      ⋮      ⋮       ⋮       ⋮            ⋮                ⋮        ⋱
  994 │   993     30  male        3  own      little           little          ⋯
  995 │   994     50  male        2  own      NA               NA
  996 │   995     31  female      1  own      little           NA
  997 │   996     40  male        3  own      little           little
  998 │   997     38  male        2  own      little           NA              ⋯
  999 │   998     23  male        2  free     little           little
 1000 │   999     27  male        2  own      moderate         moderate
                                                  4 columns and 985 rows omitted

julia> vcat(gd...) # back to the DataFrame, but in different order of rows than the original
1000×10 DataFrame
  Row │ id     Age    Sex     Job    Housing  Saving accounts  Checking accoun ⋯
      │ Int64  Int64  String  Int64  String   String           String          ⋯
──────┼─────────────────────────────────────────────────────────────────────────
    1 │   391     19  female      1  rent     rich             moderate        ⋯
    2 │   633     19  female      2  rent     little           NA
    3 │    93     20  male        2  rent     NA               rich
    4 │   155     20  female      2  rent     little           little
    5 │   167     20  female      2  own      rich             moderate        ⋯
    6 │   188     20  male        2  own      moderate         little
    7 │   296     20  female      2  rent     NA               NA
    8 │   410     20  female      2  own      little           moderate
  ⋮   │   ⋮      ⋮      ⋮       ⋮       ⋮            ⋮                ⋮        ⋱
  994 │   163     70  male        3  free     little           moderate        ⋯
  995 │   186     74  female      3  free     little           moderate
  996 │   430     74  male        1  own      little           NA
  997 │   606     74  male        3  own      little           NA
  998 │   756     74  male        0  own      little           rich            ⋯
  999 │   330     75  male        3  free     little           little
 1000 │   536     75  female      3  own      NA               little
                                                  4 columns and 985 rows omitted

julia> DataFrame(gd) # the same
1000×10 DataFrame
  Row │ id     Age    Sex     Job    Housing  Saving accounts  Checking accoun ⋯
      │ Int64  Int64  String  Int64  String   String           String          ⋯
──────┼─────────────────────────────────────────────────────────────────────────
    1 │   391     19  female      1  rent     rich             moderate        ⋯
    2 │   633     19  female      2  rent     little           NA
    3 │    93     20  male        2  rent     NA               rich
    4 │   155     20  female      2  rent     little           little
    5 │   167     20  female      2  own      rich             moderate        ⋯
    6 │   188     20  male        2  own      moderate         little
    7 │   296     20  female      2  rent     NA               NA
    8 │   410     20  female      2  own      little           moderate
  ⋮   │   ⋮      ⋮      ⋮       ⋮       ⋮            ⋮                ⋮        ⋱
  994 │   163     70  male        3  free     little           moderate        ⋯
  995 │   186     74  female      3  free     little           moderate
  996 │   430     74  male        1  own      little           NA
  997 │   606     74  male        3  own      little           NA
  998 │   756     74  male        0  own      little           rich            ⋯
  999 │   330     75  male        3  free     little           little
 1000 │   536     75  female      3  own      NA               little
                                                  4 columns and 985 rows omitted
```

If `keepkeys=true`, the resulting DataFrame contains all the grouping columns in addition to those generated. 
In this case if the returned value contains columns with the same names as the grouping columns, they are 
required to be equal. If `keepkeys=false` and some generated columns have the same name as grouping columns, 
they are kept and are not required to be equal to grouping columns. In the previous example our grouping column
was `:Age` so when `keepkeys=false` it dropped the `:Age` column after creating a data frame.

```jldoctest dataframe
julia> DataFrame(gd, keepkeys=false) # drop grouping columns when creating a data frame
1000×9 DataFrame
  Row │ id     Sex     Job    Housing  Saving accounts  Checking account  Cred ⋯
      │ Int64  String  Int64  String   String           String            Int6 ⋯
──────┼─────────────────────────────────────────────────────────────────────────
    1 │   391  female      1  rent     rich             moderate               ⋯
    2 │   633  female      2  rent     little           NA
    3 │    93  male        2  rent     NA               rich
    4 │   155  female      2  rent     little           little
    5 │   167  female      2  own      rich             moderate               ⋯
    6 │   188  male        2  own      moderate         little
    7 │   296  female      2  rent     NA               NA
    8 │   410  female      2  own      little           moderate
  ⋮   │   ⋮      ⋮       ⋮       ⋮            ⋮                ⋮               ⋱
  994 │   163  male        3  free     little           moderate               ⋯
  995 │   186  female      3  free     little           moderate
  996 │   430  male        1  own      little           NA
  997 │   606  male        3  own      little           NA
  998 │   756  male        0  own      little           rich                   ⋯
  999 │   330  male        3  free     little           little
 1000 │   536  female      3  own      NA               little
                                                  3 columns and 985 rows omitted
…
julia> combine(gd, :Job => sum, nrow)
53×3 DataFrame
 Row │ Age    Job_sum  nrow
     │ Int64  Int64    Int64
─────┼───────────────────────
   1 │    19        3      2
   2 │    20       28     14
   3 │    21       25     14
   4 │    22       50     27
   5 │    23       79     48
   6 │    24       76     44
   7 │    25       72     41
   8 │    26       94     50
  ⋮  │   ⋮       ⋮       ⋮
  47 │    65        6      5
  48 │    66        8      5
  49 │    67        7      3
  50 │    68        5      3
  51 │    70        3      1
  52 │    74        7      4
  53 │    75        6      2
              38 rows omitted 
```
…
julia> combine(sdf -> sum(sdf.Job), gd) 
53×2 DataFrame
 Row │ Age    x1
     │ Int64  Int64
─────┼──────────────
   1 │    19      3
   2 │    20     28
   3 │    21     25
   4 │    22     50
   5 │    23     79
   6 │    24     76
   7 │    25     72
   8 │    26     94
  ⋮  │   ⋮      ⋮
  47 │    65      6
  48 │    66      8
  49 │    67      7
  50 │    68      5
  51 │    70      3
  52 │    74      7
  53 │    75      6
     38 rows omitted                                                             

julia> combine(gd, :Job => (x -> sum(log, x)) => :sum_log_Job) # specifying a name for target column
53×2 DataFrame
 Row │ Age    sum_log_Job
     │ Int64  Float64
─────┼────────────────────
   1 │    19     0.693147
   2 │    20     9.41638
   3 │    21     7.62462
   4 │    22    15.9424
   5 │    23  -Inf
   6 │    24  -Inf
   7 │    25  -Inf
   8 │    26  -Inf
  ⋮  │   ⋮         ⋮
  47 │    65  -Inf
  48 │    66  -Inf
  49 │    67     2.48491
  50 │    68  -Inf
  51 │    70     1.09861
  52 │    74  -Inf
  53 │    75     2.19722
           38 rows omitted

julia> combine(gd, [:Job, :Age] .=> sum) # passing a vector of pairs
53×3 DataFrame
 Row │ Age    Job_sum  Age_sum
     │ Int64  Int64    Int64
─────┼─────────────────────────
   1 │    19        3       38
   2 │    20       28      280
   3 │    21       25      294
   4 │    22       50      594
   5 │    23       79     1104
   6 │    24       76     1056
   7 │    25       72     1025
   8 │    26       94     1300
  ⋮  │   ⋮       ⋮        ⋮
  47 │    65        6      325
  48 │    66        8      330
  49 │    67        7      201
  50 │    68        5      204
  51 │    70        3       70
  52 │    74        7      296
  53 │    75        6      150
                38 rows omitted

julia> combine(gd) do sdf # dropping group when DataFrame() is returned
          sdf.Age[1] != 1 ? sdf : DataFrame()
       end
1000×10 DataFrame
  Row │ Age    id     Sex     Job    Housing  Saving accounts  Checking accoun ⋯
      │ Int64  Int64  String  Int64  String   String           String          ⋯
──────┼─────────────────────────────────────────────────────────────────────────
    1 │    19    391  female      1  rent     rich             moderate        ⋯
    2 │    19    633  female      2  rent     little           NA
    3 │    20     93  male        2  rent     NA               rich
    4 │    20    155  female      2  rent     little           little
    5 │    20    167  female      2  own      rich             moderate        ⋯
    6 │    20    188  male        2  own      moderate         little
    7 │    20    296  female      2  rent     NA               NA
    8 │    20    410  female      2  own      little           moderate
  ⋮   │   ⋮      ⋮      ⋮       ⋮       ⋮            ⋮                ⋮        ⋱
  994 │    70    163  male        3  free     little           moderate        ⋯
  995 │    74    186  female      3  free     little           moderate
  996 │    74    430  male        1  own      little           NA
  997 │    74    606  male        3  own      little           NA
  998 │    74    756  male        0  own      little           rich            ⋯
  999 │    75    330  male        3  free     little           little
 1000 │    75    536  female      3  own      NA               little
                                                  4 columns and 985 rows omitted

julia> combine(gd, :Job => :Job1, :Age => :Age1,
               [:Job, :Age] => +, keepkeys=false) # auto-splatting, renaming and keepkeys
1000×3 DataFrame
  Row │ Job1   Age1   Job_Age_+
      │ Int64  Int64  Int64
──────┼─────────────────────────
    1 │     1     19         20
    2 │     2     19         21
    3 │     2     20         22
    4 │     2     20         22
    5 │     2     20         22
    6 │     2     20         22
    7 │     2     20         22
    8 │     2     20         22
  ⋮   │   ⋮      ⋮        ⋮
  994 │     3     70         73
  995 │     3     74         77
  996 │     1     74         75
  997 │     3     74         77
  998 │     0     74         74
  999 │     3     75         78
 1000 │     3     75         78
                985 rows omitted

julia> combine(gd, :Job, :Age => sum) # passing columns and broadcasting
1000×3 DataFrame
  Row │ Age    Job    Age_sum
      │ Int64  Int64  Int64
──────┼───────────────────────
    1 │    19      1       38
    2 │    19      2       38
    3 │    20      2      280
    4 │    20      2      280
    5 │    20      2      280
    6 │    20      2      280
    7 │    20      2      280
    8 │    20      2      280
  ⋮   │   ⋮      ⋮       ⋮
  994 │    70      3       70
  995 │    74      3      296
  996 │    74      1      296
  997 │    74      3      296
  998 │    74      0      296
  999 │    75      3      150
 1000 │    75      3      150
              985 rows omitted

julia> combine(gd, [:Job, :Age] .=> Ref)
53×3 DataFrame
 Row │ Age    Job_Ref                            Age_Ref                       ⋯
     │ Int64  SubArray…                          SubArray…                     ⋯
─────┼──────────────────────────────────────────────────────────────────────────
   1 │    19  [1, 2]                             [19, 19]                      ⋯
   2 │    20  [2, 2, 2, 2, 2, 2, 2, 2, 2, 2, 2…  [20, 20, 20, 20, 20, 20, 20,
   3 │    21  [2, 2, 2, 1, 2, 2, 2, 1, 2, 2, 2…  [21, 21, 21, 21, 21, 21, 21,
   4 │    22  [2, 2, 2, 2, 2, 2, 2, 2, 1, 2  ……  [22, 22, 22, 22, 22, 22, 22,
   5 │    23  [0, 3, 1, 2, 2, 2, 2, 2, 0, 2  ……  [23, 23, 23, 23, 23, 23, 23,  ⋯
   6 │    24  [2, 2, 2, 1, 2, 2, 1, 2, 2, 1  ……  [24, 24, 24, 24, 24, 24, 24,
   7 │    25  [2, 2, 1, 2, 2, 2, 2, 2, 2, 1  ……  [25, 25, 25, 25, 25, 25, 25,
   8 │    26  [2, 2, 1, 2, 2, 2, 2, 2, 2, 1  ……  [26, 26, 26, 26, 26, 26, 26,
  ⋮  │   ⋮                    ⋮                                  ⋮             ⋱
  47 │    65  [2, 0, 2, 2, 0]                    [65, 65, 65, 65, 65]          ⋯
  48 │    66  [3, 1, 3, 1, 0]                    [66, 66, 66, 66, 66]
  49 │    67  [2, 3, 2]                          [67, 67, 67]
  50 │    68  [0, 2, 3]                          [68, 68, 68]
  51 │    70  [3]                                [70]                          ⋯
  52 │    74  [3, 1, 3, 0]                       [74, 74, 74, 74]
  53 │    75  [3, 3]                             [75, 75]
                                                    1 column and 38 rows omitted
…
