…
In simple cases, when compilation latency of CSV.jl might be an issue,
using the `DelimitedFiles` module from the Julia standard library can be considered.
Here is an example showing how to read in the data and perform its
post-processing:

```jldoctest readdlm
julia> using DelimitedFiles, DataFrames

julia> path = joinpath(pkgdir(DataFrames), "docs", "src", "assets", "iris.csv");

julia> data, header = readdlm(path, ',', header=true);

julia> iris_raw = DataFrame(data, vec(header))
150×5 DataFrame
 Row │ SepalLength  SepalWidth  PetalLength  PetalWidth  Species
     │ Any          Any         Any          Any         Any
─────┼──────────────────────────────────────────────────────────────────
   1 │ 5.1          3.5         1.4          0.2         Iris-setosa
   2 │ 4.9          3.0         1.4          0.2         Iris-setosa
   3 │ 4.7          3.2         1.3          0.2         Iris-setosa
   4 │ 4.6          3.1         1.5          0.2         Iris-setosa
   5 │ 5.0          3.6         1.4          0.2         Iris-setosa
   6 │ 5.4          3.9         1.7          0.4         Iris-setosa
   7 │ 4.6          3.4         1.4          0.3         Iris-setosa
   8 │ 5.0          3.4         1.5          0.2         Iris-setosa
  ⋮  │      ⋮           ⋮            ⋮           ⋮             ⋮
 144 │ 6.8          3.2         5.9          2.3         Iris-virginica
 145 │ 6.7          3.3         5.7          2.5         Iris-virginica
 146 │ 6.7          3.0         5.2          2.3         Iris-virginica
 147 │ 6.3          2.5         5.0          1.9         Iris-virginica
 148 │ 6.5          3.0         5.2          2.0         Iris-virginica
 149 │ 6.2          3.4         5.4          2.3         Iris-virginica
 150 │ 5.9          3.0         5.1          1.8         Iris-virginica
                                                        135 rows omitted

julia> iris = identity.(iris_raw)
150×5 DataFrame
 Row │ SepalLength  SepalWidth  PetalLength  PetalWidth  Species
     │ Float64      Float64     Float64      Float64     SubStrin…
─────┼──────────────────────────────────────────────────────────────────
   1 │         5.1         3.5          1.4         0.2  Iris-setosa
   2 │         4.9         3.0          1.4         0.2  Iris-setosa
   3 │         4.7         3.2          1.3         0.2  Iris-setosa
   4 │         4.6         3.1          1.5         0.2  Iris-setosa
   5 │         5.0         3.6          1.4         0.2  Iris-setosa
   6 │         5.4         3.9          1.7         0.4  Iris-setosa
   7 │         4.6         3.4          1.4         0.3  Iris-setosa
   8 │         5.0         3.4          1.5         0.2  Iris-setosa
  ⋮  │      ⋮           ⋮            ⋮           ⋮             ⋮
 144 │         6.8         3.2          5.9         2.3  Iris-virginica
 145 │         6.7         3.3          5.7         2.5  Iris-virginica
 146 │         6.7         3.0          5.2         2.3  Iris-virginica
 147 │         6.3         2.5          5.0         1.9  Iris-virginica
 148 │         6.5         3.0          5.2         2.0  Iris-virginica
 149 │         6.2         3.4          5.4         2.3  Iris-virginica
 150 │         5.9         3.0          5.1         1.8  Iris-virginica
                                                        135 rows omitted
```
…
