…
For example, suppose that we have the following two data frames:

```jldoctest dataframe
julia> using DataFrames

julia> using CSV

julia> german_ref = CSV.read(joinpath(dirname(pathof(DataFrames)),
                                       "..", "docs", "src", "assets", "german.csv"),
                              DataFrame; missingstring="NA")
1000×10 DataFrame
  Row │ id     Age    Sex     Job    Housing  Saving accounts  Checking accoun ⋯
      │ Int64  Int64  String  Int64  String   String?          String?         ⋯
──────┼─────────────────────────────────────────────────────────────────────────
    1 │     0     67  male        2  own      missing          little          ⋯
    2 │     1     22  female      2  own      little           moderate
    3 │     2     49  male        1  own      little           missing
    4 │     3     45  male        2  free     little           little
    5 │     4     53  male        2  free     little           little          ⋯
    6 │     5     35  male        1  free     missing          missing
    7 │     6     53  male        2  own      quite rich       missing
    8 │     7     35  male        3  rent     little           moderate
  ⋮   │   ⋮      ⋮      ⋮       ⋮       ⋮            ⋮                ⋮        ⋱
  994 │   993     30  male        3  own      little           little          ⋯
  995 │   994     50  male        2  own      missing          missing
  996 │   995     31  female      1  own      little           missing
  997 │   996     40  male        3  own      little           little
  998 │   997     38  male        2  own      little           missing         ⋯
  999 │   998     23  male        2  free     little           little
 1000 │   999     27  male        2  own      moderate         moderate
                                                  4 columns and 985 rows omitted
…
