…
Now before moving further let's practice a bit basic data transformation skills:

```jldoctest dataframe
julia> long_grocessary = stack(grocessary, [:month, :Date], [:year, :list],
                          variable_name=:days, value_name=:grocessary) 
24×4 DataFrame
 Row │ year   list    days    grocessary
     │ Int64  String  String  Int64
─────┼───────────────────────────────────
   1 │  2019  Sugar   month            1
   2 │  2019  Soap    month            2
   3 │  2019  Fruits  month            3
   4 │  2019  Oil     month            4
   5 │  2020  Sugar   month            5
   6 │  2020  Soap    month            6
   7 │  2020  Fruits  month            7
   8 │  2020  Oil     month            8
  ⋮  │   ⋮      ⋮       ⋮         ⋮
  18 │  2020  Soap    Date            20
  19 │  2020  Fruits  Date            21
  20 │  2020  Oil     Date            22
  21 │  2021  Sugar   Date            23
  22 │  2021  Soap    Date            24
  23 │  2021  Fruits  Date            25
  24 │  2021  Oil     Date            26
                           9 rows omitted

julia> long_costs = stack(costs, [:month, :Date], [:year, :list],
                                 variable_name=:days, value_name=:costs)
24×4 DataFrame
 Row │ year   list    days    costs
     │ Int64  String  String  Float64
─────┼────────────────────────────────
   1 │  2019  Sugar   month       0.5
   2 │  2019  Soap    month       1.0
   3 │  2019  Fruits  month       1.5
   4 │  2019  Oil     month       2.0
   5 │  2020  Sugar   month       2.5
   6 │  2020  Soap    month       3.0
   7 │  2020  Fruits  month       3.5
   8 │  2020  Oil     month       4.0
  ⋮  │   ⋮      ⋮       ⋮        ⋮
  18 │  2020  Soap    Date       10.0
  19 │  2020  Fruits  Date       10.5
  20 │  2020  Oil     Date       11.0
  21 │  2021  Sugar   Date       11.5
  22 │  2021  Soap    Date       12.0
  23 │  2021  Fruits  Date       12.5
  24 │  2021  Oil     Date       13.0
                        9 rows omitted

julia> long = innerjoin(long_grocessary, long_costs, on=[:year, :list, :days])
24×5 DataFrame
 Row │ year   list    days    grocessary  costs
     │ Int64  String  String  Int64       Float64
─────┼────────────────────────────────────────────
   1 │  2019  Sugar   month            1      0.5
   2 │  2019  Soap    month            2      1.0
   3 │  2019  Fruits  month            3      1.5
   4 │  2019  Oil     month            4      2.0
   5 │  2020  Sugar   month            5      2.5
   6 │  2020  Soap    month            6      3.0
   7 │  2020  Fruits  month            7      3.5
   8 │  2020  Oil     month            8      4.0
  ⋮  │   ⋮      ⋮       ⋮         ⋮          ⋮
  18 │  2020  Soap    Date            20     10.0
  19 │  2020  Fruits  Date            21     10.5
  20 │  2020  Oil     Date            22     11.0
  21 │  2021  Sugar   Date            23     11.5
  22 │  2021  Soap    Date            24     12.0
  23 │  2021  Fruits  Date            25     12.5
  24 │  2021  Oil     Date            26     13.0
                                    9 rows omitted
```                                           

## The basics of `stack`

The concept of stacking comes in handy when we have data with multi indices. We use the `stack()` function 
to reshape the data frame by converting the data into the stacked form. Reshaping the data from wide to 
long format using the `stack` function means moving (also rotating or pivoting) the innermost column index 
to become the innermost row index.

```
julia> stack(grocessary, 1:3)
36×3 DataFrame
 Row │ Date   variable  value
     │ Int64  String    Any
─────┼────────────────────────
   1 │    15  year      2019
   2 │    16  year      2019
   3 │    17  year      2019
   4 │    18  year      2019
   5 │    19  year      2020
   6 │    20  year      2020
   7 │    21  year      2020
   8 │    22  year      2020
  ⋮  │   ⋮       ⋮        ⋮
  30 │    20  month     6
  31 │    21  month     7
  32 │    22  month     8
  33 │    23  month     9
  34 │    24  month     10
  35 │    25  month     11
  36 │    26  month     12
               21 rows omitted
```

The second optional argument to `stack` indicates the columns to be stacked. These are normally referred 
to as the measured variables. Column names can also be given:

```jldoctest dataframe
julia> stack(grocessary, [:year, :list, :month])
36×3 DataFrame
 Row │ Date   variable  value
     │ Int64  String    Any
─────┼────────────────────────
   1 │    15  year      2019
   2 │    16  year      2019
   3 │    17  year      2019
   4 │    18  year      2019
   5 │    19  year      2020
   6 │    20  year      2020
   7 │    21  year      2020
   8 │    22  year      2020
  ⋮  │   ⋮       ⋮        ⋮
  30 │    20  month     6
  31 │    21  month     7
  32 │    22  month     8
  33 │    23  month     9
  34 │    24  month     10
  35 │    25  month     11
  36 │    26  month     12
               21 rows omitted
```

Note that all columns can be of different types. Type promotion follows the rules of `vcat`.
The stacked `DataFrame` that results includes all of the columns not specified to be stacked. 
These are repeated for each stacked column. These are normally refered to as identifier (id) 
columns. In addition to the id columns, two additional columns labeled `:variable` and `:value` 
contains the column identifier and the stacked columns.

A third optional argument to `stack` represents the id columns that are repeated. This makes it 
easier to specify which variables you want included in the long format:

```jldoctest dataframe
julia> stack(grocessary, [:year, :list], :Date) # first pass `:year` and `:list` variable then `:Date` variable
24×3 DataFrame
 Row │ Date   variable  value
     │ Int64  String    Any
─────┼─────────────────────────
   1 │    15  year      2019
   2 │    16  year      2019
   3 │    17  year      2019
   4 │    18  year      2019
   5 │    19  year      2020
   6 │    20  year      2020
   7 │    21  year      2020
   8 │    22  year      2020
  ⋮  │   ⋮       ⋮        ⋮
  18 │    20  list      Soap
  19 │    21  list      Fruits
  20 │    22  list      Oil
  21 │    23  list      Sugar
  22 │    24  list      Soap
  23 │    25  list      Fruits
  24 │    26  list      Oil
                 9 rows omitted
```

To make a view add `view=true` keyword argument; in that case columns of the resulting data frame share 
memory with columns of the source data frame, so the operation is potentially unsafe.

```jldoctest dataframe
julia> stack(grocessary, ["year", "list"], "Date", variable_name="key", value_name="data") # optionally we can rename columns
24×3 DataFrame
 Row │ Date   key     data
     │ Int64  String  Any
─────┼───────────────────────
   1 │    15  year    2019
   2 │    16  year    2019
   3 │    17  year    2019
   4 │    18  year    2019
   5 │    19  year    2020
   6 │    20  year    2020
   7 │    21  year    2020
   8 │    22  year    2020
  ⋮  │   ⋮      ⋮       ⋮
  18 │    20  list    Soap
  19 │    21  list    Fruits
  20 │    22  list    Oil
  21 │    23  list    Sugar
  22 │    24  list    Soap
  23 │    25  list    Fruits
  24 │    26  list    Oil
               9 rows omitted
```

if second argument is omitted in `stack` , all other columns are assumed to be the id-variables:

```jldoctest dataframe
julia> stack(grocessary, Not([:Date, :month]))
24×4 DataFrame
 Row │ month  Date   variable  value
     │ Int64  Int64  String    Any
─────┼────────────────────────────────
   1 │     1     15  year      2019
   2 │     2     16  year      2019
   3 │     3     17  year      2019
   4 │     4     18  year      2019
   5 │     5     19  year      2020
   6 │     6     20  year      2020
   7 │     7     21  year      2020
   8 │     8     22  year      2020
  ⋮  │   ⋮      ⋮       ⋮        ⋮
  18 │     6     20  list      Soap
  19 │     7     21  list      Fruits
  20 │     8     22  list      Oil
  21 │     9     23  list      Sugar
  22 │    10     24  list      Soap
  23 │    11     25  list      Fruits
  24 │    12     26  list      Oil
                        9 rows omitted
```

We can use index instead of symbols:

```jldoctest dataframe
julia> stack(grocessary, Not([3, 4]))
24×4 DataFrame
 Row │ month  Date   variable  value
     │ Int64  Int64  String    Any
─────┼────────────────────────────────
   1 │     1     15  year      2019
   2 │     2     16  year      2019
   3 │     3     17  year      2019
   4 │     4     18  year      2019
   5 │     5     19  year      2020
   6 │     6     20  year      2020
   7 │     7     21  year      2020
   8 │     8     22  year      2020
  ⋮  │   ⋮      ⋮       ⋮        ⋮
  18 │     6     20  list      Soap
  19 │     7     21  list      Fruits
  20 │     8     22  list      Oil
  21 │     9     23  list      Sugar
  22 │    10     24  list      Soap
  23 │    11     25  list      Fruits
  24 │    12     26  list      Oil
                        9 rows omitted
```
…
julia> grocessary1 = stack(grocessary, [:year, :list, :month])
36×3 DataFrame
 Row │ Date   variable  value
     │ Int64  String    Any
─────┼────────────────────────
   1 │    15  year      2019
   2 │    16  year      2019
   3 │    17  year      2019
   4 │    18  year      2019
   5 │    19  year      2020
   6 │    20  year      2020
   7 │    21  year      2020
   8 │    22  year      2020
  ⋮  │   ⋮       ⋮        ⋮
  30 │    20  month     6
  31 │    21  month     7
  32 │    22  month     8
  33 │    23  month     9
  34 │    24  month     10
  35 │    25  month     11
  36 │    26  month     12
               21 rows omitted
…
