…
We show several examples of these functions applied to the `iris` dataset below:

```jldoctest sac
julia> using DataFrames, CSV, Statistics

julia> iris = CSV.read((joinpath(dirname(pathof(DataFrames)),
                                 "..", "docs", "src", "assets", "iris.csv")),
                       DataFrame)
150×5 DataFrame
 Row │ SepalLength  SepalWidth  PetalLength  PetalWidth  Species
     │ Float64      Float64     Float64      Float64     String15
─────┼──────────────────────────────────────────────────────────────────
   1 │         5.1         3.5          1.4         0.2  Iris-setosa
   2 │         4.9         3.0          1.4         0.2  Iris-setosa
   3 │         4.7         3.2          1.3         0.2  Iris-setosa
   4 │         4.6         3.1          1.5         0.2  Iris-setosa
   5 │         5.0         3.6          1.4         0.2  Iris-setosa
   6 │         5.4         3.9          1.7         0.4  Iris-setosa
   7 │         4.6         3.4          1.4         0.3  Iris-setosa
   8 │         5.0         3.4          1.5         0.2  Iris-setosa
  ⋮  │      ⋮           ⋮            ⋮           ⋮             ⋮
 144 │         6.8         3.2          5.9         2.3  Iris-virginica
 145 │         6.7         3.3          5.7         2.5  Iris-virginica
 146 │         6.7         3.0          5.2         2.3  Iris-virginica
 147 │         6.3         2.5          5.0         1.9  Iris-virginica
 148 │         6.5         3.0          5.2         2.0  Iris-virginica
 149 │         6.2         3.4          5.4         2.3  Iris-virginica
 150 │         5.9         3.0          5.1         1.8  Iris-virginica
                                                        135 rows omitted
…
Contrary to `combine`, the `select` and `transform` functions always return
a data frame with the same number and order of rows as the source.
In the example below
the return values in columns `:SepalLength_SepalWidth_cor` and `:nrow` are
broadcasted to match the number of elements in each group:
```
julia> select(gdf, 1:2 => cor)
150×2 DataFrame
 Row │ Species         SepalLength_SepalWidth_cor
     │ String          Float64
─────┼────────────────────────────────────────────
   1 │ Iris-setosa                       0.74678
   2 │ Iris-setosa                       0.74678
   3 │ Iris-setosa                       0.74678
   4 │ Iris-setosa                       0.74678
  ⋮  │       ⋮                     ⋮
 148 │ Iris-virginica                    0.457228
 149 │ Iris-virginica                    0.457228
 150 │ Iris-virginica                    0.457228
                                  143 rows omitted

julia> transform(gdf, :Species => x -> chop.(x, head=5, tail=0))
150×6 DataFrame
 Row │ SepalLength  SepalWidth  PetalLength  PetalWidth  Species         Species_function
     │ Float64      Float64     Float64      Float64     String          SubString…
─────┼────────────────────────────────────────────────────────────────────────────────────
   1 │         5.1         3.5          1.4         0.2  Iris-setosa     setosa
   2 │         4.9         3.0          1.4         0.2  Iris-setosa     setosa
   3 │         4.7         3.2          1.3         0.2  Iris-setosa     setosa
   4 │         4.6         3.1          1.5         0.2  Iris-setosa     setosa
  ⋮  │      ⋮           ⋮            ⋮           ⋮             ⋮                ⋮
 148 │         6.5         3.0          5.2         2.0  Iris-virginica  virginica
 149 │         6.2         3.4          5.4         2.3  Iris-virginica  virginica
 150 │         5.9         3.0          5.1         1.8  Iris-virginica  virginica
                                                                          143 rows omitted
```
…
The value of `key` in the previous example is a [`DataFrames.GroupKey`](@ref) object,
which can be used in a similar fashion to a `NamedTuple`.

Grouping a data frame using the `groupby` function can be seen as adding a lookup key
to it. Such lookups can be performed efficiently by indexing the resulting
`GroupedDataFrame` with a `Tuple` or `NamedTuple`:
```jldoctest sac
julia> df = DataFrame(g=repeat(1:1000, inner=5), x=1:5000)
5000×2 DataFrame
  Row │ g      x
      │ Int64  Int64
──────┼──────────────
    1 │     1      1
    2 │     1      2
    3 │     1      3
    4 │     1      4
    5 │     1      5
    6 │     2      6
    7 │     2      7
    8 │     2      8
  ⋮   │   ⋮      ⋮
 4994 │   999   4994
 4995 │   999   4995
 4996 │  1000   4996
 4997 │  1000   4997
 4998 │  1000   4998
 4999 │  1000   4999
 5000 │  1000   5000
    4985 rows omitted
…
