# Working with Data Frames

## Examining the Data

The default printing of `DataFrame` objects only includes a sample of rows and
columns that fits on screen:

```jldoctest dataframe
julia> using DataFrames

julia> df = DataFrame(A=1:2:1000, B=repeat(1:10, inner=50), C=1:500)
500×3 DataFrame
 Row │ A      B      C
     │ Int64  Int64  Int64
─────┼─────────────────────
   1 │     1      1      1
   2 │     3      1      2
   3 │     5      1      3
   4 │     7      1      4
   5 │     9      1      5
   6 │    11      1      6
   7 │    13      1      7
   8 │    15      1      8
  ⋮  │   ⋮      ⋮      ⋮
 494 │   987     10    494
 495 │   989     10    495
 496 │   991     10    496
 497 │   993     10    497
 498 │   995     10    498
 499 │   997     10    499
 500 │   999     10    500
           485 rows omitted
```
…
julia> df[[1, 5, 10], :]
3×3 DataFrame
 Row │ A      B      C
     │ Int64  Int64  Int64
─────┼─────────────────────
   1 │     1      1      1
   2 │     9      1      5
   3 │    19      1     10

julia> df[:, [:A, :B]]
500×2 DataFrame
 Row │ A      B
     │ Int64  Int64
─────┼──────────────
   1 │     1      1
   2 │     3      1
   3 │     5      1
   4 │     7      1
   5 │     9      1
   6 │    11      1
   7 │    13      1
   8 │    15      1
  ⋮  │   ⋮      ⋮
 494 │   987     10
 495 │   989     10
 496 │   991     10
 497 │   993     10
 498 │   995     10
 499 │   997     10
 500 │   999     10
    485 rows omitted
…
julia> df[[3, 1], [:C]]
2×1 DataFrame
 Row │ C
     │ Int64
─────┼───────
   1 │     3
   2 │     1
```

Do note that `df[!, [:A]]` and `df[:, [:A]]` return a `DataFrame` object, while
`df[!, :A]` and `df[:, :A]` return a vector:

```jldoctest dataframe
julia> df[!, [:A]]
500×1 DataFrame
 Row │ A
     │ Int64
─────┼───────
   1 │     1
   2 │     3
   3 │     5
   4 │     7
   5 │     9
   6 │    11
   7 │    13
   8 │    15
  ⋮  │   ⋮
 494 │   987
 495 │   989
 496 │   991
 497 │   993
 498 │   995
 499 │   997
 500 │   999
485 rows omitted
…
julia> df[:, Cols(Not(r"x"), :)]
1×4 DataFrame
 Row │ r      y      x1     x2
     │ Int64  Int64  Int64  Int64
─────┼────────────────────────────
   1 │     1      4      2      3
```

The indexing syntax can also be used to select rows based on conditions on
variables:

```jldoctest dataframe
julia> df = DataFrame(A=1:2:1000, B=repeat(1:10, inner=50), C=1:500)
500×3 DataFrame
 Row │ A      B      C
     │ Int64  Int64  Int64
─────┼─────────────────────
   1 │     1      1      1
   2 │     3      1      2
   3 │     5      1      3
   4 │     7      1      4
   5 │     9      1      5
   6 │    11      1      6
   7 │    13      1      7
   8 │    15      1      8
  ⋮  │   ⋮      ⋮      ⋮
 494 │   987     10    494
 495 │   989     10    495
 496 │   991     10    496
 497 │   993     10    497
 498 │   995     10    498
 499 │   997     10    499
 500 │   999     10    500
           485 rows omitted

julia> df[df.A .> 500, :]
250×3 DataFrame
 Row │ A      B      C
     │ Int64  Int64  Int64
─────┼─────────────────────
   1 │   501      6    251
   2 │   503      6    252
   3 │   505      6    253
   4 │   507      6    254
   5 │   509      6    255
   6 │   511      6    256
   7 │   513      6    257
   8 │   515      6    258
  ⋮  │   ⋮      ⋮      ⋮
 244 │   987     10    494
 245 │   989     10    495
 246 │   991     10    496
 247 │   993     10    497
 248 │   995     10    498
 249 │   997     10    499
 250 │   999     10    500
           235 rows omitted

julia> df[(df.A .> 500) .& (300 .< df.C .< 400), :]
99×3 DataFrame
 Row │ A      B      C
     │ Int64  Int64  Int64
─────┼─────────────────────
   1 │   601      7    301
   2 │   603      7    302
   3 │   605      7    303
   4 │   607      7    304
   5 │   609      7    305
   6 │   611      7    306
   7 │   613      7    307
   8 │   615      7    308
  ⋮  │   ⋮      ⋮      ⋮
  93 │   785      8    393
  94 │   787      8    394
  95 │   789      8    395
  96 │   791      8    396
  97 │   793      8    397
  98 │   795      8    398
  99 │   797      8    399
            84 rows omitted
```
…
