First Steps with DataFrames.jl · DataFrames.jl
…
julia> using Pkg

julia> Pkg.add("CSV")
In order to read the file in we will use the CSV.read function.

julia> using CSV

julia> path = joinpath(pkgdir(DataFrames), "docs", "src", "assets", "german.csv");

julia> german_ref = CSV.read(path, DataFrame)
1000×10 DataFrame
  Row │ id     Age    Sex      Job    Housing  Saving accounts  Checking accou ⋯
      │ Int64  Int64  String7  Int64  String7  String15         String15       ⋯
──────┼─────────────────────────────────────────────────────────────────────────
    1 │     0     67  male         2  own      NA               little         ⋯
    2 │     1     22  female       2  own      little           moderate
    3 │     2     49  male         1  own      little           NA
    4 │     3     45  male         2  free     little           little
    5 │     4     53  male         2  free     little           little         ⋯
    6 │     5     35  male         1  free     NA               NA
    7 │     6     53  male         2  own      quite rich       NA
    8 │     7     35  male         3  rent     little           moderate
  ⋮   │   ⋮      ⋮       ⋮       ⋮       ⋮            ⋮                ⋮       ⋱
  994 │   993     30  male         3  own      little           little         ⋯
  995 │   994     50  male         2  own      NA               NA
  996 │   995     31  female       1  own      little           NA
  997 │   996     40  male         3  own      little           little
  998 │   997     38  male         2  own      little           NA             ⋯
  999 │   998     23  male         2  free     little           little
 1000 │   999     27  male         2  own      moderate         moderate
                                                  4 columns and 985 rows omitted
…
Before we wrap up let us discuss the empty and empty! functions that remove all rows from a DataFrame. Understanding the difference between the behavior of these two functions will help you to understand the function naming scheme in DataFrames.jl in general.
Let us start with the example of using the empty and empty! functions:

julia> empty(german)
0×10 DataFrame
 Row │ id     Age    Sex      Job    Housing  Saving accounts  Checking accoun ⋯
     │ Int64  Int64  String7  Int64  String7  String15         String15        ⋯
─────┴──────────────────────────────────────────────────────────────────────────
                                                               4 columns omitted

julia> german
1000×10 DataFrame
  Row │ id     Age    Sex      Job    Housing  Saving accounts  Checking accou ⋯
      │ Int64  Int64  String7  Int64  String7  String15         String15       ⋯
──────┼─────────────────────────────────────────────────────────────────────────
    1 │     0     67  male         2  own      NA               little         ⋯
    2 │     1     22  female       2  own      little           moderate
    3 │     2     49  male         1  own      little           NA
    4 │     3     45  male         2  free     little           little
    5 │     4     53  male         2  free     little           little         ⋯
    6 │     5     35  male         1  free     NA               NA
    7 │     6     53  male         2  own      quite rich       NA
    8 │     7     35  male         3  rent     little           moderate
  ⋮   │   ⋮      ⋮       ⋮       ⋮       ⋮            ⋮                ⋮       ⋱
  994 │   993     30  male         3  own      little           little         ⋯
  995 │   994     50  male         2  own      NA               NA
  996 │   995     31  female       1  own      little           NA
  997 │   996     40  male         3  own      little           little
  998 │   997     38  male         2  own      little           NA             ⋯
  999 │   998     23  male         2  free     little           little
 1000 │   999     27  male         2  own      moderate         moderate
                                                  4 columns and 985 rows omitted
…
julia> describe(german, cols=1:3)
3×7 DataFrame
 Row │ variable  mean    min     median  max   nmissing  eltype
     │ Symbol    Union…  Any     Union…  Any   Int64     DataType
─────┼────────────────────────────────────────────────────────────
   1 │ id        499.5   0       499.5   999          0  Int64
   2 │ Age       35.546  19      33.0    75           0  Int64
   3 │ Sex               female          male         0  String7
The default statistics reported are mean, min, median, max, number of missing values, and element type of the column. missing values are skipped when computing the summary statistics.
You can adjust how data frame is displayed by calling the show function manually: show(german, allrows=true) prints all rows even if they do not fit on screen and show(german, allcols=true) does the same for columns, e.g.:

julia> show(german, allcols=true)
1000×10 DataFrame
  Row │ id     Age    Sex      Job    Housing  Saving accounts  Checking account  Credit amount  Duration  Purpose
      │ Int64  Int64  String7  Int64  String7  String15         String15          Int64          Int64     String31
──────┼────────────────────────────────────────────────────────────────────────────────────────────────────────────────────────
    1 │     0     67  male         2  own      NA               little                     1169         6  radio/TV
    2 │     1     22  female       2  own      little           moderate                   5951        48  radio/TV
    3 │     2     49  male         1  own      little           NA                         2096        12  education
    4 │     3     45  male         2  free     little           little                     7882        42  furniture/equipment
    5 │     4     53  male         2  free     little           little                     4870        24  car
    6 │     5     35  male         1  free     NA               NA                         9055        36  education
    7 │     6     53  male         2  own      quite rich       NA                         2835        24  furniture/equipment
    8 │     7     35  male         3  rent     little           moderate                   6948        36  car
  ⋮   │   ⋮      ⋮       ⋮       ⋮       ⋮            ⋮                ⋮                ⋮           ⋮               ⋮
  994 │   993     30  male         3  own      little           little                     3959        36  furniture/equipment
  995 │   994     50  male         2  own      NA               NA                         2390        12  car
  996 │   995     31  female       1  own      little           NA                         1736        12  furniture/equipment
  997 │   996     40  male         3  own      little           little                     3857        30  car
  998 │   997     38  male         2  own      little           NA                          804        12  radio/TV
  999 │   998     23  male         2  free     little           little                     1845        45  radio/TV
 1000 │   999     27  male         2  own      moderate         moderate                   4576        45  car
                                                                                                               985 rows omitted
It is easy to compute descriptive statistics directly on individual columns using the functions defined in the Statistics module:

julia> using Statistics

julia> mean(german.Age)
35.546
If instead we want to apply some function to all columns of a data frame we can use the mapcols function. It returns a DataFrame where each column of the source data frame is transformed using a function passed as a first argument. Note that mapcols guarantees not to reuse the columns from german in the returned DataFrame. If the transformation returns its argument then it gets copied before being stored.

julia> mapcols(id -> id .^ 2, german)
1000×10 DataFrame
  Row │ id      Age    Sex           Job    Housing   Saving accounts       Ch ⋯
      │ Int64   Int64  String        Int64  String    String                St ⋯
──────┼─────────────────────────────────────────────────────────────────────────
    1 │      0   4489  malemale          4  ownown    NANA                  li ⋯
    2 │      1    484  femalefemale      4  ownown    littlelittle          mo
    3 │      4   2401  malemale          1  ownown    littlelittle          NA
    4 │      9   2025  malemale          4  freefree  littlelittle          li
    5 │     16   2809  malemale          4  freefree  littlelittle          li ⋯
    6 │     25   1225  malemale          1  freefree  NANA                  NA
    7 │     36   2809  malemale          4  ownown    quite richquite rich  NA
    8 │     49   1225  malemale          9  rentrent  littlelittle          mo
  ⋮   │   ⋮       ⋮         ⋮          ⋮       ⋮               ⋮               ⋱
  994 │ 986049    900  malemale          9  ownown    littlelittle          li ⋯
  995 │ 988036   2500  malemale          4  ownown    NANA                  NA
  996 │ 990025    961  femalefemale      1  ownown    littlelittle          NA
  997 │ 992016   1600  malemale          9  ownown    littlelittle          li
  998 │ 994009   1444  malemale          4  ownown    littlelittle          NA ⋯
  999 │ 996004    529  malemale          4  freefree  littlelittle          li
 1000 │ 998001    729  malemale          4  ownown    moderatemoderate      mo
                                                  4 columns and 985 rows omitted
…
julia> german[[1, 6, 15], :]
3×10 DataFrame
 Row │ id     Age    Sex      Job    Housing  Saving accounts  Checking accoun ⋯
     │ Int64  Int64  String7  Int64  String7  String15         String15        ⋯
─────┼──────────────────────────────────────────────────────────────────────────
   1 │     0     67  male         2  own      NA               little          ⋯
   2 │     5     35  male         1  free     NA               NA
   3 │    14     28  female       2  rent     little           little
                                                               4 columns omitted

julia> german[:, [:Age, :Sex]]
1000×2 DataFrame
  Row │ Age    Sex
      │ Int64  String7
──────┼────────────────
    1 │    67  male
    2 │    22  female
    3 │    49  male
    4 │    45  male
    5 │    53  male
    6 │    35  male
    7 │    53  male
    8 │    35  male
  ⋮   │   ⋮       ⋮
  994 │    30  male
  995 │    50  male
  996 │    31  female
  997 │    40  male
  998 │    38  male
  999 │    23  male
 1000 │    27  male
       985 rows omitted
Pay attention that german[!, [:Sex]] and german[:, [:Sex]] returns a data frame object, while german[!, :Sex] and german[:, :Sex] returns a vector. In the first case, [:Sex] is a vector, indicating that the resulting object should be a data frame. On the other hand, :Sex is a single Symbol, indicating that a single column vector should be extracted. Note that in the first case a vector is required to be passed (not just any iterable), so e.g. german[:, (:Age, :Sex)] is not allowed, but german[:, [:Age, :Sex]] is valid. Below we show both operations to highlight this difference:

julia> german[!, [:Sex]]
1000×1 DataFrame
  Row │ Sex
      │ String7
──────┼─────────
    1 │ male
    2 │ female
    3 │ male
    4 │ male
    5 │ male
    6 │ male
    7 │ male
    8 │ male
  ⋮   │    ⋮
  994 │ male
  995 │ male
  996 │ female
  997 │ male
  998 │ male
  999 │ male
 1000 │ male
985 rows omitted
…
julia> german[4, 4]
2
Views
We can also create a view of a data frame. It is often useful as it is more memory efficient than creating a materialized selection. You can create it using a view function:

julia> view(german, :, 2:5)
1000×4 SubDataFrame
  Row │ Age    Sex      Job    Housing
      │ Int64  String7  Int64  String7
──────┼────────────────────────────────
    1 │    67  male         2  own
    2 │    22  female       2  own
    3 │    49  male         1  own
    4 │    45  male         2  free
    5 │    53  male         2  free
    6 │    35  male         1  free
    7 │    53  male         2  own
    8 │    35  male         3  rent
  ⋮   │   ⋮       ⋮       ⋮       ⋮
  994 │    30  male         3  own
  995 │    50  male         2  own
  996 │    31  female       1  own
  997 │    40  male         3  own
  998 │    38  male         2  own
  999 │    23  male         2  free
 1000 │    27  male         2  own
                       985 rows omitted
or using a @view macro:

julia> @view german[end:-1:1, [1, 4]]
1000×2 SubDataFrame
  Row │ id     Job
      │ Int64  Int64
──────┼──────────────
    1 │   999      2
    2 │   998      2
    3 │   997      2
    4 │   996      3
    5 │   995      1
    6 │   994      2
    7 │   993      3
    8 │   992      1
  ⋮   │   ⋮      ⋮
  994 │     6      2
  995 │     5      1
  996 │     4      2
  997 │     3      2
  998 │     2      1
  999 │     1      2
 1000 │     0      2
     985 rows omitted
…
julia> german[:, Not(:Age)]
1000×9 DataFrame
  Row │ id     Sex      Job    Housing  Saving accounts  Checking account  Cre ⋯
      │ Int64  String7  Int64  String7  String15         String15          Int ⋯
──────┼─────────────────────────────────────────────────────────────────────────
    1 │     0  male         2  own      NA               little                ⋯
    2 │     1  female       2  own      little           moderate
    3 │     2  male         1  own      little           NA
    4 │     3  male         2  free     little           little
    5 │     4  male         2  free     little           little                ⋯
    6 │     5  male         1  free     NA               NA
    7 │     6  male         2  own      quite rich       NA
    8 │     7  male         3  rent     little           moderate
  ⋮   │   ⋮       ⋮       ⋮       ⋮            ⋮                ⋮              ⋱
  994 │   993  male         3  own      little           little                ⋯
  995 │   994  male         2  own      NA               NA
  996 │   995  female       1  own      little           NA
  997 │   996  male         3  own      little           little
  998 │   997  male         2  own      little           NA                    ⋯
  999 │   998  male         2  free     little           little
 1000 │   999  male         2  own      moderate         moderate
                                                  3 columns and 985 rows omitted
Select columns starting from :Sex and ending at :Housing:

julia> german[:, Between(:Sex, :Housing)]
1000×3 DataFrame
  Row │ Sex     Job    Housing
      │ String  Int64  String
──────┼────────────────────────
    1 │ male        2  own
    2 │ female      2  own
    3 │ male        1  own
    4 │ male        2  free
    5 │ male        2  free
    6 │ male        1  free
    7 │ male        2  own
    8 │ male        3  rent
  ⋮   │   ⋮       ⋮       ⋮
  994 │ male        3  own
  995 │ male        2  own
  996 │ female      1  own
  997 │ male        3  own
  998 │ male        2  own
  999 │ male        2  free
 1000 │ male        2  own
               985 rows omitted
In the example below Cols selector is picking a union of "Age" and Between("Sex", "Job") selectors passed as its arguments:

julia> german[:, Cols("Age", Between("Sex", "Job"))]
1000×3 DataFrame
  Row │ Age    Sex      Job
      │ Int64  String7  Int64
──────┼───────────────────────
    1 │    67  male         2
    2 │    22  female       2
    3 │    49  male         1
    4 │    45  male         2
    5 │    53  male         2
    6 │    35  male         1
    7 │    53  male         2
    8 │    35  male         3
  ⋮   │   ⋮       ⋮       ⋮
  994 │    30  male         3
  995 │    50  male         2
  996 │    31  female       1
  997 │    40  male         3
  998 │    38  male         2
  999 │    23  male         2
 1000 │    27  male         2
              985 rows omitted
You can also use Regex (regular expressions) to select columns. In the example below we select columns that have "S" in their name and also we use Not to drop row number 5:

julia> german[Not(5), r"S"]
999×2 DataFrame
 Row │ Sex      Saving accounts
     │ String7  String15
─────┼──────────────────────────
   1 │ male     NA
   2 │ female   little
   3 │ male     little
   4 │ male     little
   5 │ male     NA
   6 │ male     quite rich
   7 │ male     little
   8 │ male     rich
  ⋮  │    ⋮            ⋮
 993 │ male     little
 994 │ male     NA
 995 │ female   little
 996 │ male     little
 997 │ male     little
 998 │ male     little
 999 │ male     moderate
                984 rows omitted
…
