Split-apply-combine · DataFrames.jl
…
julia> using DataFrames, CSV, Statistics

julia> path = joinpath(pkgdir(DataFrames), "docs", "src", "assets", "iris.csv");

julia> iris = CSV.read(path, DataFrame)
150×5 DataFrame
 Row │ SepalLength  SepalWidth  PetalLength  PetalWidth  Species
     │ Float64      Float64     Float64      Float64     String15
─────┼──────────────────────────────────────────────────────────────────
   1 │         5.1         3.5          1.4         0.2  Iris-setosa
   2 │         4.9         3.0          1.4         0.2  Iris-setosa
   3 │         4.7         3.2          1.3         0.2  Iris-setosa
   4 │         4.6         3.1          1.5         0.2  Iris-setosa
   5 │         5.0         3.6          1.4         0.2  Iris-setosa
   6 │         5.4         3.9          1.7         0.4  Iris-setosa
   7 │         4.6         3.4          1.4         0.3  Iris-setosa
   8 │         5.0         3.4          1.5         0.2  Iris-setosa
  ⋮  │      ⋮           ⋮            ⋮           ⋮             ⋮
 144 │         6.8         3.2          5.9         2.3  Iris-virginica
 145 │         6.7         3.3          5.7         2.5  Iris-virginica
 146 │         6.7         3.0          5.2         2.3  Iris-virginica
 147 │         6.3         2.5          5.0         1.9  Iris-virginica
 148 │         6.5         3.0          5.2         2.0  Iris-virginica
 149 │         6.2         3.4          5.4         2.3  Iris-virginica
 150 │         5.9         3.0          5.1         1.8  Iris-virginica
                                                        135 rows omitted
…
julia> combine(iris_gdf, :PetalLength => (x -> [extrema(x)]) => [:min, :max])
3×3 DataFrame
 Row │ Species          min      max
     │ String15         Float64  Float64
─────┼───────────────────────────────────
   1 │ Iris-setosa          1.0      1.9
   2 │ Iris-versicolor      3.0      5.1
   3 │ Iris-virginica       4.5      6.9
To get row number for each observation within each group use the eachindex function:

julia> combine(iris_gdf, eachindex)
150×2 DataFrame
 Row │ Species         eachindex
     │ String15        Int64
─────┼───────────────────────────
   1 │ Iris-setosa             1
   2 │ Iris-setosa             2
   3 │ Iris-setosa             3
  ⋮  │       ⋮             ⋮
 148 │ Iris-virginica         48
 149 │ Iris-virginica         49
 150 │ Iris-virginica         50
                 144 rows omitted
Contrary to combine, the select and transform functions always return a data frame with the same number and order of rows as the source. In the example below the return values in columns :SepalLength_SepalWidth_cor and :nrow are broadcasted to match the number of elements in each group:

julia> select(iris_gdf, 1:2 => cor)
150×2 DataFrame
 Row │ Species         SepalLength_SepalWidth_cor
     │ String          Float64
─────┼────────────────────────────────────────────
   1 │ Iris-setosa                       0.74678
   2 │ Iris-setosa                       0.74678
   3 │ Iris-setosa                       0.74678
   4 │ Iris-setosa                       0.74678
  ⋮  │       ⋮                     ⋮
 148 │ Iris-virginica                    0.457228
 149 │ Iris-virginica                    0.457228
 150 │ Iris-virginica                    0.457228
                                  143 rows omitted

julia> transform(iris_gdf, :Species => x -> chop.(x, head=5, tail=0))
150×6 DataFrame
 Row │ SepalLength  SepalWidth  PetalLength  PetalWidth  Species         Species_function
     │ Float64      Float64     Float64      Float64     String          SubString…
─────┼────────────────────────────────────────────────────────────────────────────────────
   1 │         5.1         3.5          1.4         0.2  Iris-setosa     setosa
   2 │         4.9         3.0          1.4         0.2  Iris-setosa     setosa
   3 │         4.7         3.2          1.3         0.2  Iris-setosa     setosa
   4 │         4.6         3.1          1.5         0.2  Iris-setosa     setosa
  ⋮  │      ⋮           ⋮            ⋮           ⋮             ⋮                ⋮
 148 │         6.5         3.0          5.2         2.0  Iris-virginica  virginica
 149 │         6.2         3.4          5.4         2.3  Iris-virginica  virginica
 150 │         5.9         3.0          5.1         1.8  Iris-virginica  virginica
                                                                          143 rows omitted
…
julia> for (key, subdf) in pairs(iris_gdf)
           println("Number of data points for $(key.Species): $(nrow(subdf))")
       end
Number of data points for Iris-setosa: 50
Number of data points for Iris-versicolor: 50
Number of data points for Iris-virginica: 50
The value of key in the example above where we iterated pairs(iris_gdf) is a DataFrames.GroupKey object, which can be used in a similar fashion to a NamedTuple.
Grouping a data frame using the groupby function can be seen as adding a lookup key to it. Such lookups can be performed efficiently by indexing the resulting GroupedDataFrame with DataFrames.GroupKey (as it was presented above) a Tuple, a NamedTuple, or a dictionary. Here are some more examples of such indexing.

julia> iris_gdf[(Species="Iris-virginica",)]  # a NamedTuple
50×5 SubDataFrame
 Row │ SepalLength  SepalWidth  PetalLength  PetalWidth  Species
     │ Float64      Float64     Float64      Float64     String15
─────┼──────────────────────────────────────────────────────────────────
   1 │         6.3         3.3          6.0         2.5  Iris-virginica
   2 │         5.8         2.7          5.1         1.9  Iris-virginica
   3 │         7.1         3.0          5.9         2.1  Iris-virginica
   4 │         6.3         2.9          5.6         1.8  Iris-virginica
   5 │         6.5         3.0          5.8         2.2  Iris-virginica
   6 │         7.6         3.0          6.6         2.1  Iris-virginica
   7 │         4.9         2.5          4.5         1.7  Iris-virginica
   8 │         7.3         2.9          6.3         1.8  Iris-virginica
  ⋮  │      ⋮           ⋮            ⋮           ⋮             ⋮
  44 │         6.8         3.2          5.9         2.3  Iris-virginica
  45 │         6.7         3.3          5.7         2.5  Iris-virginica
  46 │         6.7         3.0          5.2         2.3  Iris-virginica
  47 │         6.3         2.5          5.0         1.9  Iris-virginica
  48 │         6.5         3.0          5.2         2.0  Iris-virginica
  49 │         6.2         3.4          5.4         2.3  Iris-virginica
  50 │         5.9         3.0          5.1         1.8  Iris-virginica
                                                         35 rows omitted
…
julia> key = keys(iris_gdf) |> last # last key in iris_gdf
GroupKey: (Species = String15("Iris-virginica"),)

julia> iris_gdf[key]
50×5 SubDataFrame
 Row │ SepalLength  SepalWidth  PetalLength  PetalWidth  Species
     │ Float64      Float64     Float64      Float64     String15
─────┼──────────────────────────────────────────────────────────────────
   1 │         6.3         3.3          6.0         2.5  Iris-virginica
   2 │         5.8         2.7          5.1         1.9  Iris-virginica
   3 │         7.1         3.0          5.9         2.1  Iris-virginica
   4 │         6.3         2.9          5.6         1.8  Iris-virginica
   5 │         6.5         3.0          5.8         2.2  Iris-virginica
   6 │         7.6         3.0          6.6         2.1  Iris-virginica
   7 │         4.9         2.5          4.5         1.7  Iris-virginica
   8 │         7.3         2.9          6.3         1.8  Iris-virginica
  ⋮  │      ⋮           ⋮            ⋮           ⋮             ⋮
  44 │         6.8         3.2          5.9         2.3  Iris-virginica
  45 │         6.7         3.3          5.7         2.5  Iris-virginica
  46 │         6.7         3.0          5.2         2.3  Iris-virginica
  47 │         6.3         2.5          5.0         1.9  Iris-virginica
  48 │         6.5         3.0          5.2         2.0  Iris-virginica
  49 │         6.2         3.4          5.4         2.3  Iris-virginica
  50 │         5.9         3.0          5.1         1.8  Iris-virginica
                                                         35 rows omitted

julia> iris_gdf[Dict("Species" => "Iris-setosa")] # a dictionary
50×5 SubDataFrame
 Row │ SepalLength  SepalWidth  PetalLength  PetalWidth  Species
     │ Float64      Float64     Float64      Float64     String15
─────┼───────────────────────────────────────────────────────────────
   1 │         5.1         3.5          1.4         0.2  Iris-setosa
   2 │         4.9         3.0          1.4         0.2  Iris-setosa
   3 │         4.7         3.2          1.3         0.2  Iris-setosa
   4 │         4.6         3.1          1.5         0.2  Iris-setosa
   5 │         5.0         3.6          1.4         0.2  Iris-setosa
   6 │         5.4         3.9          1.7         0.4  Iris-setosa
   7 │         4.6         3.4          1.4         0.3  Iris-setosa
   8 │         5.0         3.4          1.5         0.2  Iris-setosa
  ⋮  │      ⋮           ⋮            ⋮           ⋮            ⋮
  44 │         5.0         3.5          1.6         0.6  Iris-setosa
  45 │         5.1         3.8          1.9         0.4  Iris-setosa
  46 │         4.8         3.0          1.4         0.3  Iris-setosa
  47 │         5.1         3.8          1.6         0.2  Iris-setosa
  48 │         4.6         3.2          1.4         0.2  Iris-setosa
  49 │         5.3         3.7          1.5         0.2  Iris-setosa
  50 │         5.0         3.3          1.4         0.2  Iris-setosa
                                                      35 rows omitted
Note that although GroupedDataFrame is iterable and indexable it is not an AbstractVector. For this reason currently it was decided that it does not support map nor broadcasting (to allow for making a decision in the future what result type they should produce). To apply a function to all groups of a data frame and get a vector of results either use a comprehension or collect GroupedDataFrame into a vector first. Here are examples of both approaches:

julia> sdf_vec = collect(iris_gdf)
3-element Vector{Any}:
 50×5 SubDataFrame
 Row │ SepalLength  SepalWidth  PetalLength  PetalWidth  Species
     │ Float64      Float64     Float64      Float64     String15
─────┼───────────────────────────────────────────────────────────────
   1 │         5.1         3.5          1.4         0.2  Iris-setosa
   2 │         4.9         3.0          1.4         0.2  Iris-setosa
   3 │         4.7         3.2          1.3         0.2  Iris-setosa
   4 │         4.6         3.1          1.5         0.2  Iris-setosa
   5 │         5.0         3.6          1.4         0.2  Iris-setosa
   6 │         5.4         3.9          1.7         0.4  Iris-setosa
   7 │         4.6         3.4          1.4         0.3  Iris-setosa
   8 │         5.0         3.4          1.5         0.2  Iris-setosa
  ⋮  │      ⋮           ⋮            ⋮           ⋮            ⋮
  44 │         5.0         3.5          1.6         0.6  Iris-setosa
  45 │         5.1         3.8          1.9         0.4  Iris-setosa
  46 │         4.8         3.0          1.4         0.3  Iris-setosa
  47 │         5.1         3.8          1.6         0.2  Iris-setosa
  48 │         4.6         3.2          1.4         0.2  Iris-setosa
  49 │         5.3         3.7          1.5         0.2  Iris-setosa
  50 │         5.0         3.3          1.4         0.2  Iris-setosa
                                                      35 rows omitted
 50×5 SubDataFrame
 Row │ SepalLength  SepalWidth  PetalLength  PetalWidth  Species
     │ Float64      Float64     Float64      Float64     String15
─────┼───────────────────────────────────────────────────────────────────
   1 │         7.0         3.2          4.7         1.4  Iris-versicolor
   2 │         6.4         3.2          4.5         1.5  Iris-versicolor
   3 │         6.9         3.1          4.9         1.5  Iris-versicolor
   4 │         5.5         2.3          4.0         1.3  Iris-versicolor
   5 │         6.5         2.8          4.6         1.5  Iris-versicolor
   6 │         5.7         2.8          4.5         1.3  Iris-versicolor
   7 │         6.3         3.3          4.7         1.6  Iris-versicolor
   8 │         4.9         2.4          3.3         1.0  Iris-versicolor
  ⋮  │      ⋮           ⋮            ⋮           ⋮              ⋮
  44 │         5.0         2.3          3.3         1.0  Iris-versicolor
  45 │         5.6         2.7          4.2         1.3  Iris-versicolor
  46 │         5.7         3.0          4.2         1.2  Iris-versicolor
  47 │         5.7         2.9          4.2         1.3  Iris-versicolor
  48 │         6.2         2.9          4.3         1.3  Iris-versicolor
  49 │         5.1         2.5          3.0         1.1  Iris-versicolor
  50 │         5.7         2.8          4.1         1.3  Iris-versicolor
                                                          35 rows omitted
 50×5 SubDataFrame
 Row │ SepalLength  SepalWidth  PetalLength  PetalWidth  Species
     │ Float64      Float64     Float64      Float64     String15
─────┼──────────────────────────────────────────────────────────────────
   1 │         6.3         3.3          6.0         2.5  Iris-virginica
   2 │         5.8         2.7          5.1         1.9  Iris-virginica
   3 │         7.1         3.0          5.9         2.1  Iris-virginica
   4 │         6.3         2.9          5.6         1.8  Iris-virginica
   5 │         6.5         3.0          5.8         2.2  Iris-virginica
   6 │         7.6         3.0          6.6         2.1  Iris-virginica
   7 │         4.9         2.5          4.5         1.7  Iris-virginica
   8 │         7.3         2.9          6.3         1.8  Iris-virginica
  ⋮  │      ⋮           ⋮            ⋮           ⋮             ⋮
  44 │         6.8         3.2          5.9         2.3  Iris-virginica
  45 │         6.7         3.3          5.7         2.5  Iris-virginica
  46 │         6.7         3.0          5.2         2.3  Iris-virginica
  47 │         6.3         2.5          5.0         1.9  Iris-virginica
  48 │         6.5         3.0          5.2         2.0  Iris-virginica
  49 │         6.2         3.4          5.4         2.3  Iris-virginica
  50 │         5.9         3.0          5.1         1.8  Iris-virginica
                                                         35 rows omitted
…
