Reshaping · DataFrames.jl
…
Edit on GitHub
Reshaping and Pivoting Data
Reshape data from wide to long format using the stack function:

julia> using DataFrames, CSV

150×5 DataFrame
 Row │ SepalLength  SepalWidth  PetalLength  PetalWidth  Species
     │ Float64      Float64     Float64      Float64     String
─────┼──────────────────────────────────────────────────────────────────
   1 │         5.1         3.5          1.4         0.2  Iris-setosa
   2 │         4.9         3.0          1.4         0.2  Iris-setosa
   3 │         4.7         3.2          1.3         0.2  Iris-setosa
   4 │         4.6         3.1          1.5         0.2  Iris-setosa
  ⋮  │      ⋮           ⋮            ⋮           ⋮             ⋮
 148 │         6.5         3.0          5.2         2.0  Iris-virginica
 149 │         6.2         3.4          5.4         2.3  Iris-virginica
 150 │         5.9         3.0          5.1         1.8  Iris-virginica
                                                        143 rows omitted

julia> stack(iris, 1:4)
600×3 DataFrame
 Row │ Species         variable     value
     │ String          String       Float64
─────┼──────────────────────────────────────
   1 │ Iris-setosa     SepalLength      5.1
   2 │ Iris-setosa     SepalLength      4.9
   3 │ Iris-setosa     SepalLength      4.7
   4 │ Iris-setosa     SepalLength      4.6
  ⋮  │       ⋮              ⋮          ⋮
 598 │ Iris-virginica  PetalWidth       2.0
 599 │ Iris-virginica  PetalWidth       2.3
 600 │ Iris-virginica  PetalWidth       1.8
                            593 rows omitted
The second optional argument to stack indicates the columns to be stacked. These are normally referred to as the measured variables. Column names can also be given:

julia> stack(iris, [:SepalLength, :SepalWidth, :PetalLength, :PetalWidth])
600×3 DataFrame
 Row │ Species         variable     value
     │ String          String       Float64
─────┼──────────────────────────────────────
   1 │ Iris-setosa     SepalLength      5.1
   2 │ Iris-setosa     SepalLength      4.9
   3 │ Iris-setosa     SepalLength      4.7
   4 │ Iris-setosa     SepalLength      4.6
  ⋮  │       ⋮              ⋮          ⋮
 598 │ Iris-virginica  PetalWidth       2.0
 599 │ Iris-virginica  PetalWidth       2.3
 600 │ Iris-virginica  PetalWidth       1.8
                            593 rows omitted
Note that all columns can be of different types. Type promotion follows the rules of vcat.
The stacked DataFrame that results includes all of the columns not specified to be stacked. These are repeated for each stacked column. These are normally refered to as identifier (id) columns. In addition to the id columns, two additional columns labeled :variable and :values contain the column identifier and the stacked columns.
A third optional argument to stack represents the id columns that are repeated. This makes it easier to specify which variables you want included in the long format:

julia> stack(iris, [:SepalLength, :SepalWidth], :Species)
300×3 DataFrame
 Row │ Species         variable     value
     │ String          String       Float64
─────┼──────────────────────────────────────
   1 │ Iris-setosa     SepalLength      5.1
   2 │ Iris-setosa     SepalLength      4.9
   3 │ Iris-setosa     SepalLength      4.7
   4 │ Iris-setosa     SepalLength      4.6
  ⋮  │       ⋮              ⋮          ⋮
 298 │ Iris-virginica  SepalWidth       3.0
 299 │ Iris-virginica  SepalWidth       3.4
 300 │ Iris-virginica  SepalWidth       3.0
                            293 rows omitted
If you prefer to specify the id columns then use Not with stack like this:

julia> stack(iris, Not(:Species))
600×3 DataFrame
 Row │ Species         variable     value
     │ String          String       Float64
─────┼──────────────────────────────────────
   1 │ Iris-setosa     SepalLength      5.1
   2 │ Iris-setosa     SepalLength      4.9
   3 │ Iris-setosa     SepalLength      4.7
   4 │ Iris-setosa     SepalLength      4.6
  ⋮  │       ⋮              ⋮          ⋮
 598 │ Iris-virginica  PetalWidth       2.0
 599 │ Iris-virginica  PetalWidth       2.3
 600 │ Iris-virginica  PetalWidth       1.8
                            593 rows omitted
unstack converts from a long format to a wide format. The default is requires specifying which columns are an id variable, column variable names, and column values:

julia> iris.id = 1:size(iris, 1)
1:150

julia> longdf = stack(iris, Not([:Species, :id]))
600×4 DataFrame
 Row │ Species         id     variable     value
     │ String          Int64  String       Float64
─────┼─────────────────────────────────────────────
   1 │ Iris-setosa         1  SepalLength      5.1
   2 │ Iris-setosa         2  SepalLength      4.9
   3 │ Iris-setosa         3  SepalLength      4.7
   4 │ Iris-setosa         4  SepalLength      4.6
  ⋮  │       ⋮           ⋮         ⋮          ⋮
 598 │ Iris-virginica    148  PetalWidth       2.0
 599 │ Iris-virginica    149  PetalWidth       2.3
 600 │ Iris-virginica    150  PetalWidth       1.8
                                   593 rows omitted

julia> unstack(longdf, :id, :variable, :value)
150×5 DataFrame
 Row │ id     SepalLength  SepalWidth  PetalLength  PetalWidth
     │ Int64  Float64?     Float64?    Float64?     Float64?
─────┼─────────────────────────────────────────────────────────
   1 │     1          5.1         3.5          1.4         0.2
   2 │     2          4.9         3.0          1.4         0.2
   3 │     3          4.7         3.2          1.3         0.2
   4 │     4          4.6         3.1          1.5         0.2
  ⋮  │   ⋮         ⋮           ⋮            ⋮           ⋮
 148 │   148          6.5         3.0          5.2         2.0
 149 │   149          6.2         3.4          5.4         2.3
 150 │   150          5.9         3.0          5.1         1.8
                                               143 rows omitted
If the remaining columns are unique, you can skip the id variable and use:

julia> unstack(longdf, :variable, :value)
150×6 DataFrame
 Row │ Species         id     SepalLength  SepalWidth  PetalLength  PetalWidth
     │ String          Int64  Float64?     Float64?    Float64?     Float64?
─────┼─────────────────────────────────────────────────────────────────────────
   1 │ Iris-setosa         1          5.1         3.5          1.4         0.2
   2 │ Iris-setosa         2          4.9         3.0          1.4         0.2
   3 │ Iris-setosa         3          4.7         3.2          1.3         0.2
   4 │ Iris-setosa         4          4.6         3.1          1.5         0.2
  ⋮  │       ⋮           ⋮         ⋮           ⋮            ⋮           ⋮
 148 │ Iris-virginica    148          6.5         3.0          5.2         2.0
 149 │ Iris-virginica    149          6.2         3.4          5.4         2.3
 150 │ Iris-virginica    150          5.9         3.0          5.1         1.8
                                                               143 rows omitted
You can even skip passing the :variable and :value values as positional arguments, as they will be used by default, and write:

julia> unstack(longdf)
150×6 DataFrame
 Row │ Species         id     SepalLength  SepalWidth  PetalLength  PetalWidth
     │ String          Int64  Float64?     Float64?    Float64?     Float64?
─────┼─────────────────────────────────────────────────────────────────────────
   1 │ Iris-setosa         1          5.1         3.5          1.4         0.2
   2 │ Iris-setosa         2          4.9         3.0          1.4         0.2
   3 │ Iris-setosa         3          4.7         3.2          1.3         0.2
   4 │ Iris-setosa         4          4.6         3.1          1.5         0.2
  ⋮  │       ⋮           ⋮         ⋮           ⋮            ⋮           ⋮
 148 │ Iris-virginica    148          6.5         3.0          5.2         2.0
 149 │ Iris-virginica    149          6.2         3.4          5.4         2.3
 150 │ Iris-virginica    150          5.9         3.0          5.1         1.8
                                                               143 rows omitted
Passing view=true to stack returns a data frame whose columns are views into the original wide data frame. Here is an example:

julia> stack(iris, view=true)
600×4 DataFrame
 Row │ Species         id     variable     value
     │ String          Int64  String       Float64
─────┼─────────────────────────────────────────────
   1 │ Iris-setosa         1  SepalLength      5.1
   2 │ Iris-setosa         2  SepalLength      4.9
   3 │ Iris-setosa         3  SepalLength      4.7
   4 │ Iris-setosa         4  SepalLength      4.6
  ⋮  │       ⋮           ⋮         ⋮          ⋮
 598 │ Iris-virginica    148  PetalWidth       2.0
 599 │ Iris-virginica    149  PetalWidth       2.3
 600 │ Iris-virginica    150  PetalWidth       1.8
                                   593 rows omitted
This saves memory. To create the view, several AbstractVectors are defined:
:variable column – EachRepeatedVector This repeats the variables N times where N is the number of rows of the original AbstractDataFrame.
:value column – StackedVector This is provides a view of the original columns stacked together.
Id columns – RepeatedVector This repeats the original columns N times where N is the number of columns stacked.
None of these reshaping functions perform any aggregation. To do aggregation, use the split-apply-combine functions in combination with reshaping. Here is an example:

julia> using Statistics

julia> d = stack(iris, Not(:Species))
750×3 DataFrame
 Row │ Species         variable     value
     │ String          String       Float64
─────┼──────────────────────────────────────
   1 │ Iris-setosa     SepalLength      5.1
   2 │ Iris-setosa     SepalLength      4.9
   3 │ Iris-setosa     SepalLength      4.7
   4 │ Iris-setosa     SepalLength      4.6
  ⋮  │       ⋮              ⋮          ⋮
 748 │ Iris-virginica  id             148.0
 749 │ Iris-virginica  id             149.0
 750 │ Iris-virginica  id             150.0
                            743 rows omitted

julia> x = combine(groupby(d, [:variable, :Species]), :value => mean => :vsum)
15×3 DataFrame
 Row │ variable     Species          vsum
     │ String       String           Float64
─────┼───────────────────────────────────────
   1 │ SepalLength  Iris-setosa        5.006
   2 │ SepalLength  Iris-versicolor    5.936
   3 │ SepalLength  Iris-virginica     6.588
   4 │ SepalWidth   Iris-setosa        3.418
  ⋮  │      ⋮              ⋮            ⋮
  13 │ id           Iris-setosa       25.5
  14 │ id           Iris-versicolor   75.5
  15 │ id           Iris-virginica   125.5
                               8 rows omitted
…
